{
  "implicitDependencies": {
    "angular.json": "*",
    "package.json": {
      "dependencies": "*",
      "devDependencies": "*"
    },
    "tslint.json": "*",
    "nx.json": "*",
    "tsconfig.base.json": "*"
  },
  "affected": {
    "defaultBase": "master"
  },
  "npmScope": "dunefront-interview",
  "tasksRunnerOptions": {
    "default": {
      "runner": "@nrwl/workspace/tasks-runners/default",
      "options": {
        "cacheableOperations": ["build", "lint", "test", "e2e"]
      }
    }
  },
  "projects": {
    "chess-app": {
      "tags": []
    },
    "chess-app-e2e": {
      "tags": [],
      "implicitDependencies": ["chess-app"]
    },
    "api": {
      "tags": []
    },
    "api-interfaces": {
      "tags": []
    }
  }
}
